Retail project
…
# read data from database
set.seed(29172977)
myseries <- aus_retail %>%
  filter(
    `Series ID` == sample(aus_retail$`Series ID`,1),
    Month < yearmonth("2018 Jan")
  )

Report-

1.A discussion of the statistical features of the original data.

head(myseries,n = 36)

## # A tsibble: 36 x 5 [1M]
## # Key:       State, Industry [1]
##    State         Industry                          `Series ID`    Month Turnover
##    <chr>         <chr>                             <chr>          <mth>    <dbl>
##  1 South Austra~ Electrical and electronic goods ~ A3349361W   1982 Apr     16  
##  2 South Austra~ Electrical and electronic goods ~ A3349361W   1982 May     19  
##  3 South Austra~ Electrical and electronic goods ~ A3349361W   1982 Jun     18.1
##  4 South Austra~ Electrical and electronic goods ~ A3349361W   1982 Jul     20.3
##  5 South Austra~ Electrical and electronic goods ~ A3349361W   1982 Aug     19.6
##  6 South Austra~ Electrical and electronic goods ~ A3349361W   1982 Sep     19.9
##  7 South Austra~ Electrical and electronic goods ~ A3349361W   1982 Oct     19.7
##  8 South Austra~ Electrical and electronic goods ~ A3349361W   1982 Nov     22.7
##  9 South Austra~ Electrical and electronic goods ~ A3349361W   1982 Dec     30.3
## 10 South Austra~ Electrical and electronic goods ~ A3349361W   1983 Jan     18.8
## # ... with 26 more rows
…
Now, split our data into two part, the first 80% should be training set and the last 20% should be the testing set.

# myseries has 429 rows, so we select the last 24 observations as our testing set and the rest is assumed as the training set

myseries_tr <- myseries %>% 
   slice(1:405)
myseries_tr

## # A tsibble: 405 x 5 [1M]
## # Key:       State, Industry [1]
##    State         Industry                          `Series ID`    Month Turnover
##    <chr>         <chr>                             <chr>          <mth>    <dbl>
##  1 South Austra~ Electrical and electronic goods ~ A3349361W   1982 Apr     16  
##  2 South Austra~ Electrical and electronic goods ~ A3349361W   1982 May     19  
##  3 South Austra~ Electrical and electronic goods ~ A3349361W   1982 Jun     18.1
##  4 South Austra~ Electrical and electronic goods ~ A3349361W   1982 Jul     20.3
##  5 South Austra~ Electrical and electronic goods ~ A3349361W   1982 Aug     19.6
##  6 South Austra~ Electrical and electronic goods ~ A3349361W   1982 Sep     19.9
##  7 South Austra~ Electrical and electronic goods ~ A3349361W   1982 Oct     19.7
##  8 South Austra~ Electrical and electronic goods ~ A3349361W   1982 Nov     22.7
##  9 South Austra~ Electrical and electronic goods ~ A3349361W   1982 Dec     30.3
## 10 South Austra~ Electrical and electronic goods ~ A3349361W   1983 Jan     18.8
## # ... with 395 more rows

myseries_ts <- myseries %>% 
  slice(406:429)
myseries_ts

## # A tsibble: 24 x 5 [1M]
## # Key:       State, Industry [1]
##    State         Industry                          `Series ID`    Month Turnover
##    <chr>         <chr>                             <chr>          <mth>    <dbl>
##  1 South Austra~ Electrical and electronic goods ~ A3349361W   2016 Jan    101. 
##  2 South Austra~ Electrical and electronic goods ~ A3349361W   2016 Feb     83.5
##  3 South Austra~ Electrical and electronic goods ~ A3349361W   2016 Mar     84.7
##  4 South Austra~ Electrical and electronic goods ~ A3349361W   2016 Apr     87.5
##  5 South Austra~ Electrical and electronic goods ~ A3349361W   2016 May     89.3
##  6 South Austra~ Electrical and electronic goods ~ A3349361W   2016 Jun     98.5
##  7 South Austra~ Electrical and electronic goods ~ A3349361W   2016 Jul    100  
##  8 South Austra~ Electrical and electronic goods ~ A3349361W   2016 Aug     93.8
##  9 South Austra~ Electrical and electronic goods ~ A3349361W   2016 Sep     89.8
## 10 South Austra~ Electrical and electronic goods ~ A3349361W   2016 Oct     98.3
## # ... with 14 more rows
…
The model selected by R is : ARIMA(1,1,2)(0,1,1) without drift The best guess is : ARIMA(0,1,2)(0,1,1)[12] without drift

When using the AICc approach to compare those model, we would suggest ARIMA(1,1,2)(0,1,1). Furthermore, we would compare the automatically generated model with the best model manually selected using the test accuracy.

fit <- myseries_tr %>% 
  model(
    Auto = ARIMA(log(Turnover) ~ pdq(1,1,2) + PDQ(0,1,1)),
    Manual = ARIMA(log(Turnover) ~ pdq(0,1,2) + PDQ(0,1,1))
  )

fc <- fit %>% 
  forecast(h = 24)
fc

## # A fable: 48 x 6 [1M]
## # Key:     State, Industry, .model [2]
##    State      Industry                  .model     Month Turnover .distribution 
##    <chr>      <chr>                     <chr>      <mth>    <dbl> <dist>        
##  1 South Aus~ Electrical and electroni~ Auto    2016 Jan    106.  t(N(4.7, 0.00~
##  2 South Aus~ Electrical and electroni~ Auto    2016 Feb     88.1 t(N(4.5, 0.00~
##  3 South Aus~ Electrical and electroni~ Auto    2016 Mar     95.0 t(N(4.6, 0.00~
##  4 South Aus~ Electrical and electroni~ Auto    2016 Apr     87.9 t(N(4.5, 0.00~
##  5 South Aus~ Electrical and electroni~ Auto    2016 May     97.5 t(N(4.6, 0.00~
##  6 South Aus~ Electrical and electroni~ Auto    2016 Jun    105.  t(N(4.7, 0.00~
##  7 South Aus~ Electrical and electroni~ Auto    2016 Jul    105.  t(N(4.6, 0.00~
##  8 South Aus~ Electrical and electroni~ Auto    2016 Aug    102.  t(N(4.6, 0.01~
##  9 South Aus~ Electrical and electroni~ Auto    2016 Sep     97.9 t(N(4.6, 0.01~
## 10 South Aus~ Electrical and electroni~ Auto    2016 Oct    101.  t(N(4.6, 0.01~
## # ... with 38 more rows

myseries_tr

## # A tsibble: 405 x 5 [1M]
## # Key:       State, Industry [1]
##    State         Industry                          `Series ID`    Month Turnover
##    <chr>         <chr>                             <chr>          <mth>    <dbl>
##  1 South Austra~ Electrical and electronic goods ~ A3349361W   1982 Apr     16  
##  2 South Austra~ Electrical and electronic goods ~ A3349361W   1982 May     19  
##  3 South Austra~ Electrical and electronic goods ~ A3349361W   1982 Jun     18.1
##  4 South Austra~ Electrical and electronic goods ~ A3349361W   1982 Jul     20.3
##  5 South Austra~ Electrical and electronic goods ~ A3349361W   1982 Aug     19.6
##  6 South Austra~ Electrical and electronic goods ~ A3349361W   1982 Sep     19.9
##  7 South Austra~ Electrical and electronic goods ~ A3349361W   1982 Oct     19.7
##  8 South Austra~ Electrical and electronic goods ~ A3349361W   1982 Nov     22.7
##  9 South Austra~ Electrical and electronic goods ~ A3349361W   1982 Dec     30.3
## 10 South Austra~ Electrical and electronic goods ~ A3349361W   1983 Jan     18.8
## # ... with 395 more rows
…
The best model selected by R is ETS(A,Ad,A) which is identical to what we expected.Same as how we select the ARIMA model , we still use the RMSE based on the test set to select the model.

fit <- myseries_tr %>% 
  model(
    AAA =  ETS(log(Turnover) ~ error('A') + trend('A') + season('A')),
    MAA =  ETS(log(Turnover) ~ error('M') + trend('A') + season('A')),
    AAdA = ETS(log(Turnover) ~ error('A') + trend('Ad') + season('A')),
    MAdA = ETS(log(Turnover) ~ error('M') + trend('Ad') + season('A'))
  )

tidy(fit)

## # A tibble: 66 x 5
##    State           Industry                                .model term  estimate
##    <chr>           <chr>                                   <chr>  <chr>    <dbl>
##  1 South Australia Electrical and electronic goods retail~ AAA    alpha  4.62e-1
##  2 South Australia Electrical and electronic goods retail~ AAA    beta   1.00e-4
##  3 South Australia Electrical and electronic goods retail~ AAA    gamma  1.33e-1
##  4 South Australia Electrical and electronic goods retail~ AAA    l      2.91e+0
##  5 South Australia Electrical and electronic goods retail~ AAA    b      4.34e-3
##  6 South Australia Electrical and electronic goods retail~ AAA    s0    -1.09e-2
##  7 South Australia Electrical and electronic goods retail~ AAA    s1    -1.23e-1
##  8 South Australia Electrical and electronic goods retail~ AAA    s2    -6.18e-2
##  9 South Australia Electrical and electronic goods retail~ AAA    s3     3.56e-1
## 10 South Australia Electrical and electronic goods retail~ AAA    s4     4.52e-2
## # ... with 56 more rows
…
(2): 80% prediction interval

# 80% prediction interval for the ARIMA model
PI1 <- fc_ARIMA %>% 
  mutate(prediction_interval = hilo(.distribution,80))
PI1 %>% 
  as_tsibble() %>% 
  select(-State,-Industry,-.distribution)

## # A tsibble: 24 x 4 [1M]
## # Key:       .model [1]
##    .model    Month Turnover     prediction_interval
##    <chr>     <mth>    <dbl>                  <hilo>
##  1 ARIMA  2016 Jan    106.  [98.18612, 114.69801]80
##  2 ARIMA  2016 Feb     88.1 [80.29186,  96.23826]80
##  3 ARIMA  2016 Mar     95.0 [86.01725, 104.33281]80
##  4 ARIMA  2016 Apr     87.9 [78.91042,  97.35042]80
##  5 ARIMA  2016 May     97.5 [86.91688, 108.55637]80
##  6 ARIMA  2016 Jun    105.  [93.02055, 117.76768]80
##  7 ARIMA  2016 Jul    105.  [91.94474, 117.77812]80
##  8 ARIMA  2016 Aug    102.  [89.02316, 115.39315]80
##  9 ARIMA  2016 Sep     97.9 [85.08007, 111.49527]80
## 10 ARIMA  2016 Oct    101.  [87.28333, 115.61703]80
## # ... with 14 more rows

# 80% prediction interval for the ETS model
PI2 <- fc_ETS %>% 
  mutate(prediction_interval = hilo(.distribution,80))
PI2 %>% 
  as_tsibble() %>% 
  select(-State,-Industry,-.distribution)

## # A tsibble: 24 x 4 [1M]
## # Key:       .model [1]
##    .model    Month Turnover     prediction_interval
##    <chr>     <mth>    <dbl>                  <hilo>
##  1 ETS    2016 Jan    104.  [95.74104, 112.19660]80
##  2 ETS    2016 Feb     86.4 [79.08791,  93.98171]80
##  3 ETS    2016 Mar     93.7 [85.16700, 102.54349]80
##  4 ETS    2016 Apr     88.3 [79.74809,  97.22559]80
##  5 ETS    2016 May     99.4 [89.17270, 110.02329]80
##  6 ETS    2016 Jun    108.  [96.32731, 120.22642]80
##  7 ETS    2016 Jul    107.  [94.80116, 119.64519]80
##  8 ETS    2016 Aug    104.  [91.41334, 116.62121]80
##  9 ETS    2016 Sep     99.1 [86.82335, 111.93443]80
## 10 ETS    2016 Oct    101.  [88.17744, 114.85001]80
## # ... with 14 more rows
…
7.Obtain up-to-date data from the ABS website (Cat. 8501.0, Table 11), and compare your forecasts with the actual numbers. How well did you do? [Hint: the readabs package can help in getting the data into R.]

abs <- read_abs(series_id = "A3349361W")

## Finding filenames for tables corresponding to ABS series ID

## Attempting to download files from series ID , Retail Trade, Australia

## Extracting data from downloaded spreadsheets

## Tidying data from imported ABS spreadsheets

abs

## # A tibble: 457 x 12
##    table_no sheet_no table_title date       series value series_type data_type
##    <chr>    <chr>    <chr>       <date>     <chr>  <dbl> <chr>       <chr>    
##  1 8501011  Data1    TABLE 11. ~ 1982-04-01 Turno~  16   Original    FLOW     
##  2 8501011  Data1    TABLE 11. ~ 1982-05-01 Turno~  19   Original    FLOW     
##  3 8501011  Data1    TABLE 11. ~ 1982-06-01 Turno~  18.1 Original    FLOW     
##  4 8501011  Data1    TABLE 11. ~ 1982-07-01 Turno~  20.3 Original    FLOW     
##  5 8501011  Data1    TABLE 11. ~ 1982-08-01 Turno~  19.6 Original    FLOW     
##  6 8501011  Data1    TABLE 11. ~ 1982-09-01 Turno~  19.9 Original    FLOW     
##  7 8501011  Data1    TABLE 11. ~ 1982-10-01 Turno~  19.7 Original    FLOW     
##  8 8501011  Data1    TABLE 11. ~ 1982-11-01 Turno~  22.7 Original    FLOW     
##  9 8501011  Data1    TABLE 11. ~ 1982-12-01 Turno~  30.3 Original    FLOW     
## 10 8501011  Data1    TABLE 11. ~ 1983-01-01 Turno~  18.8 Original    FLOW     
## # ... with 447 more rows, and 4 more variables: collection_month <chr>,
## #   frequency <chr>, series_id <chr>, unit <chr>
myseries_2020 <- abs %>% 
  separate(col = series,into = c('Turnover','State','Industry'),sep = ";") %>% 
  select(-Turnover) %>% 
  rename(Turnover = 'value',Month = 'date') %>% 
  select(State,Industry,series_id,Month,Turnover) %>% 
  mutate(Month = yearmonth(Month)) %>% 
  as_tsibble(index = Month) %>% 
  filter(year(Month) < 2020)

## Warning: Expected 3 pieces. Additional pieces discarded in 457 rows [1, 2, 3, 4,
## 5, 6, 7, 8, 9, 10, 11, 12, 13, 14, 15, 16, 17, 18, 19, 20, ...].

myseries_2020

## # A tsibble: 453 x 5 [1M]
##    State           Industry                          series_id    Month Turnover
##    <chr>           <chr>                             <chr>        <mth>    <dbl>
##  1 "  South Austr~ "  Electrical and electronic goo~ A3349361W 1982 Apr     16  
##  2 "  South Austr~ "  Electrical and electronic goo~ A3349361W 1982 May     19  
##  3 "  South Austr~ "  Electrical and electronic goo~ A3349361W 1982 Jun     18.1
##  4 "  South Austr~ "  Electrical and electronic goo~ A3349361W 1982 Jul     20.3
##  5 "  South Austr~ "  Electrical and electronic goo~ A3349361W 1982 Aug     19.6
##  6 "  South Austr~ "  Electrical and electronic goo~ A3349361W 1982 Sep     19.9
##  7 "  South Austr~ "  Electrical and electronic goo~ A3349361W 1982 Oct     19.7
##  8 "  South Austr~ "  Electrical and electronic goo~ A3349361W 1982 Nov     22.7
##  9 "  South Austr~ "  Electrical and electronic goo~ A3349361W 1982 Dec     30.3
## 10 "  South Austr~ "  Electrical and electronic goo~ A3349361W 1983 Jan     18.8
## # ... with 443 more rows
…
